Line 25: Property Size in Font had an invalid value.
Line 44: Property Size in Font had an invalid value.
Line 61: Property Size in Font had an invalid value.
Line 81: Property Size in Font had an invalid value.
Line 97: Property Size in Font had an invalid value.
Line 113: Property Size in Font had an invalid value.
Line 131: Property Size in Font had an invalid value.
Line 149: Property Size in Font had an invalid value.
Line 166: Property Size in Font had an invalid value.
Line 182: Property Size in Font had an invalid value.
Line 219: Property Size in Font had an invalid value.
Line 238: Property Size in Font had an invalid value.
Line 276: Property Size in Font had an invalid value.
Line 294: Property Size in Font had an invalid value.
Line 313: Property Size in Font had an invalid value.
Line 330: Property Size in Font had an invalid value.
Line 348: Property Size in Font had an invalid value.
Line 373: Property Size in Font had an invalid value.
Line 427: Property Size in Font had an invalid value.
Line 444: Property Size in Font had an invalid value.
Line 462: Property Size in Font had an invalid value.
Line 480: Property Size in Font had an invalid value.
Line 498: Property Size in Font had an invalid value.
Line 516: Property Size in Font had an invalid value.
